{
    "KPlugin": {
        "Authors": [
            {
                "Email": "ltinkl@redhat.com",
                "Name": "Lukáš Tinkl",
                "Name[ar]": "Lukáš Tinkl",
                "Name[ast]": "Lukáš Tinkl",
                "Name[az]": "Lukáš Tinkl",
                "Name[bg]": "Lukáš Tinkl",
                "Name[ca@valencia]": "Lukáš Tinkl",
                "Name[ca]": "Lukáš Tinkl",
                "Name[cs]": "Lukáš Tinkl",
                "Name[de]": "Lukáš Tinkl",
                "Name[el]": "Lukáš Tinkl",
                "Name[en_GB]": "Lukáš Tinkl",
                "Name[eo]": "Lukáš Tinkl",
                "Name[es]": "Lukáš Tinkl",
                "Name[eu]": "Lukáš Tinkl",
                "Name[fi]": "Lukáš Tinkl",
                "Name[fr]": "Lukáš Tinkl",
                "Name[gl]": "Lukáš Tinkl",
                "Name[he]": "לוקאש טינקל",
                "Name[hu]": "Lukáš Tinkl",
                "Name[ia]": "Lukáš Tinkl",
                "Name[is]": "Lukáš Tinkl",
                "Name[it]": "Lukáš Tinkl",
                "Name[ja]": "Lukáš Tinkl",
                "Name[ka]": "Lukáš Tinkl",
                "Name[ko]": "Lukáš Tinkl",
                "Name[lt]": "Lukáš Tinkl",
                "Name[lv]": "Lukáš Tinkl",
                "Name[nl]": "Lukáš Tinkl",
                "Name[nn]": "Lukáš Tinkl",
                "Name[pa]": "ਲੁਕੇਸ ਟਿੰਕਲ",
                "Name[pl]": "Lukáš Tinkl",
                "Name[pt]": "Lukáš Tinkl",
                "Name[pt_BR]": "Lukáš Tinkl",
                "Name[ro]": "Lukáš Tinkl",
                "Name[ru]": "Lukáš Tinkl",
                "Name[sk]": "Lukáš Tinkl",
                "Name[sl]": "Lukáš Tinkl",
                "Name[sv]": "Lukáš Tinkl",
                "Name[ta]": "லூக்காஸ் டிங்க்குள்",
                "Name[tr]": "Lukáš Tinkl",
                "Name[uk]": "Lukáš Tinkl",
                "Name[x-test]": "xxLukáš Tinklxx",
                "Name[zh_CN]": "Lukáš Tinkl",
                "Name[zh_TW]": "Lukáš Tinkl"
            }
        ],
        "Category": "VPNService",
        "Description": "Compatible with Cisco AnyConnect SSL VPN",
        "Description[ar]": "متوافق مع سيسكو AnyConnect SSL VPN",
        "Description[az]": "SSL ilə uyğun Cisco AnyConnect VPN",
        "Description[bg]": "Съвместим с  Cisco AnyConnect SSL VPN",
        "Description[ca@valencia]": "VPN sobre SSL compatible amb AnyConnect de Cisco",
        "Description[ca]": "VPN sobre SSL compatible amb AnyConnect de Cisco",
        "Description[cs]": "Kompatibilní s Cisco AnyConnect SSL VPN",
        "Description[de]": "Mit Cisco-AnyConnect-SSL-VPN kompatibel",
        "Description[el]": "Συμβατό με Cisco AnyConnect SSL VPN",
        "Description[en_GB]": "Compatible with Cisco AnyConnect SSL VPN",
        "Description[eo]": "Kongrua kun Cisco AnyConnect SSL VPN",
        "Description[es]": "Compatible con VPN SSL de Cisco AnyConnect",
        "Description[eu]": "Cisco AnyConnect SSL VPN-rekin bateragarria",
        "Description[fi]": "Yhteensopiva Cisco Anyconnectin SSL-VPN:n kanssa",
        "Description[fr]": "Compatible avec les VPN « SSL Cisco AnyConnect »",
        "Description[gl]": "Compatíbel con VPN por SSL de Cisco AnyConnect.",
        "Description[he]": "תאימות ל־Cisco AnyConnect SSL VPN",
        "Description[hu]": "Kompatibilis Cisco AnyConnect SSL VPN-nel",
        "Description[ia]": "Compatibile con Cisco AnyConnect SSL VPN",
        "Description[is]": "Samhæft við Cisco AnyConnect SSL VPN",
        "Description[it]": "Compatibile con Cisco AnyConnect SSL VPN",
        "Description[ja]": "Cisco AnyConnect SSL VPN に対応",
        "Description[ka]": "Cisco AnyConnect SSL VPN-თან თავსებადი",
        "Description[ko]": "Cisco AnyConnect SSL VPN과 호환됨",
        "Description[lt]": "Suderinamas su Cisco AnyConnect SSL VPN",
        "Description[lv]": "Saderīgs ar „Cisco AnyConnect“ SSL VPN",
        "Description[nl]": "Compatibel met Cisco AnyConnect SSL VPN",
        "Description[nn]": "Kompatibel med Cisco AnyConnect SSL VPN",
        "Description[pa]": "Cisco AnyConnect SSL VPN ਲਈ ਢੁਕਵਾਂ",
        "Description[pl]": "Zgodny z VPN Cisco AnyConnect SSL",
        "Description[pt]": "Compatível com a VPN AnyConnect da Cisco por SSL",
        "Description[pt_BR]": "Compatível com a VPN Cisco AnyConnect por SSL",
        "Description[ru]": "Совместимая с Cisco AnyConnect VPN с SSL",
        "Description[sk]": "Kompatibilné s Cisco AnyConnect SSL VPN",
        "Description[sl]": "Združljivo s Cisco AnyConnect SSL VPN",
        "Description[sv]": "Kompatibel med Cisco AnyConnect SSL VPN",
        "Description[tr]": "Cisco AnyConnect SSL VPN ile uyumlu",
        "Description[uk]": "VPN, сумісний з Cisco AnyConnect SSL",
        "Description[x-test]": "xxCompatible with Cisco AnyConnect SSL VPNxx",
        "Description[zh_CN]": "兼容 Cisco AnyConnect SSL VPN",
        "Description[zh_TW]": "與 Cisco AnyConnect SSL VPN 相容",
        "EnabledByDefault": false,
        "Icon": "",
        "License": "GPL",
        "Name": "Cisco AnyConnect Compatible VPN (openconnect)",
        "Name[ar]": "شبكات افتراضية متوافقة مع سيسكو أني كونكت بواسطة (openconnect)",
        "Name[az]": "Cisco AnyConnect ilə uyğun VPN (openconnect)",
        "Name[bg]": "Cisco AnyConnect Compatible VPN (openconnect)",
        "Name[ca@valencia]": "VPN compatible amb AnyConnect de Cisco (openconnect)",
        "Name[ca]": "VPN compatible amb AnyConnect de Cisco (openconnect)",
        "Name[cs]": "VPN kompatibilní s AnyConnect (openconnect)",
        "Name[da]": "Cisco AnyConnect-kompatibelt VPN (openconnect)",
        "Name[de]": "VPN kompatibel mit Cisco AnyConnect (openconnect)",
        "Name[el]": "Συμβατό με Cisco AnyConnect VPN (openconnect)",
        "Name[en_GB]": "Cisco AnyConnect Compatible VPN (openconnect)",
        "Name[eo]": "Kongrua VPN de Cisco AnyConnect (malferma konekto)",
        "Name[es]": "VPN compatible con Cisco AnyConnect (openconnect)",
        "Name[et]": "Cisco AnyConnectiga ühilduv VPN (openconnect)",
        "Name[eu]": "Cisco AnyConnect-kin bateragarria den VPN (openconnect)",
        "Name[fi]": "Cisco AnyConnect -yhteensopiva VPN (openconnect)",
        "Name[fr]": "VPN compatible Cisco AnyConnect (openconnect)",
        "Name[gl]": "VPN compatíbel con Cisco AnyConnect (openconnect)",
        "Name[he]": "VPN תואם Cisco AnyConnect‏ (openconnect)",
        "Name[hu]": "Cisco AnyConnect kompatibilis VPN (openconnect)",
        "Name[ia]": "Cisco AnyConnect Compatible VPN (openconnect)",
        "Name[id]": "Cisco AnyConnect Compatible VPN (openconnect)",
        "Name[is]": "Cisco AnyConnect-samhæft VPN (openconnect)",
        "Name[it]": "VPN compatibile Cisco AnyConnect (openconnect)",
        "Name[ja]": "Cisco AnyConnect 互換の VPN (openconnect)",
        "Name[ka]": "Cisco AnyConnect -თან თავსებადი VPN (openconnect)",
        "Name[ko]": "Cisco AnyConnect 호환 VPN(openconnect)",
        "Name[lt]": "Cisco AnyConnect suderinamas VPN (openconnect)",
        "Name[lv]": "Ar „Cisco AnyConnect“ saderīgs VPN („openconnect“)",
        "Name[nl]": "Cisco AnyConnect Compatibele VPN (openconnect)",
        "Name[nn]": "Cisco AnyConnect-kompatibel VPN (openconnect)",
        "Name[pa]": "Cisco AnyConnect ਅਨੁਕੂਲ VPN (openconnect)",
        "Name[pl]": "VPN zgodny z Cisco AnyConnect (openconnect)",
        "Name[pt]": "VPN Compatível com o AnyConnect da Cisco (openconnect)",
        "Name[pt_BR]": "VPN compatível com o Cisco AnyConnect (openconnect)",
        "Name[ru]": "Совместимая с Cisco AnyConnect VPN (openconnect)",
        "Name[sk]": "VPN kompatibilná s Cisco AnyConnect (openconnect)",
        "Name[sl]": "S Cisco AnyConnect združljiv VPN (openconnect)",
        "Name[sr@ijekavian]": "ВПН сагласан са Сисковим ениконектом (Опенконект)",
        "Name[sr@ijekavianlatin]": "VPN saglasan sa Ciscovim AnyConnectom (OpenConnect)",
        "Name[sr@latin]": "VPN saglasan sa Ciscovim AnyConnectom (OpenConnect)",
        "Name[sr]": "ВПН сагласан са Сисковим ениконектом (Опенконект)",
        "Name[sv]": "Cisco AnyConnect-kompatibel VPN (openconnect)",
        "Name[tr]": "Cisco AnyConnect Uyumlu VPN (openconnect)",
        "Name[uk]": "VPN, сумісний з Cisco AnyConnect (openconnect)",
        "Name[x-test]": "xxCisco AnyConnect Compatible VPN (openconnect)xx",
        "Name[zh_CN]": "Cisco AnyConnect 兼容 VPN (openconnect)",
        "Name[zh_TW]": "與 Cisco AnyConnect 相容的 VPN (openconnect)",
        "Version": "0.1",
        "Website": ""
    },
    "X-NetworkManager-Services": "org.freedesktop.NetworkManager.openconnect",
    "X-NetworkManager-Services-Subtype": "anyconnect"
}
